\relax 
\providecommand\hyper@newdestlabel[2]{}
\@writefile{nav}{\headcommand {\slideentry {2}{0}{7}{16/25}{}{0}}}
\@writefile{nav}{\headcommand {\beamer@framepages {16}{25}}}
\@setckpt{files}{
\setcounter{page}{26}
\setcounter{equation}{0}
\setcounter{enumi}{0}
\setcounter{enumii}{0}
\setcounter{enumiii}{0}
\setcounter{enumiv}{0}
\setcounter{footnote}{0}
\setcounter{mpfootnote}{0}
\setcounter{beamerpauses}{1}
\setcounter{bookmark@seq@number}{2}
\setcounter{lecture}{0}
\setcounter{part}{0}
\setcounter{section}{2}
\setcounter{subsection}{0}
\setcounter{subsubsection}{0}
\setcounter{subsectionslide}{7}
\setcounter{framenumber}{7}
\setcounter{figure}{0}
\setcounter{table}{0}
\setcounter{parentequation}{0}
\setcounter{theorem}{0}
\setcounter{FancyVerbLine}{1}
\setcounter{section@level}{0}
\setcounter{treelevel}{0}
}
