\relax 
\providecommand\hyper@newdestlabel[2]{}
\@writefile{toc}{\beamer@sectionintoc {7}{Libraries en Helpers}{81}{0}{7}}
\@writefile{nav}{\headcommand {\sectionentry {7}{Libraries}{81}{Libraries en Helpers}{0}}}
\@writefile{nav}{\headcommand {\beamer@sectionpages {60}{80}}}
\@writefile{nav}{\headcommand {\beamer@subsectionpages {60}{80}}}
\@writefile{nav}{\headcommand {\slideentry {7}{0}{32}{81/81}{}{0}}}
\@writefile{nav}{\headcommand {\beamer@framepages {81}{81}}}
\@writefile{nav}{\headcommand {\slideentry {7}{0}{33}{82/82}{}{0}}}
\@writefile{nav}{\headcommand {\beamer@framepages {82}{82}}}
\@writefile{nav}{\headcommand {\slideentry {7}{0}{34}{83/83}{}{0}}}
\@writefile{nav}{\headcommand {\beamer@framepages {83}{83}}}
\@writefile{nav}{\headcommand {\slideentry {7}{0}{35}{84/84}{}{0}}}
\@writefile{nav}{\headcommand {\beamer@framepages {84}{84}}}
\@writefile{nav}{\headcommand {\slideentry {7}{0}{36}{85/88}{}{0}}}
\@writefile{nav}{\headcommand {\beamer@framepages {85}{88}}}
\@writefile{nav}{\headcommand {\slideentry {7}{0}{37}{89/92}{}{0}}}
\@writefile{nav}{\headcommand {\beamer@framepages {89}{92}}}
\@setckpt{libs}{
\setcounter{page}{93}
\setcounter{equation}{0}
\setcounter{enumi}{0}
\setcounter{enumii}{0}
\setcounter{enumiii}{0}
\setcounter{enumiv}{0}
\setcounter{footnote}{0}
\setcounter{mpfootnote}{0}
\setcounter{beamerpauses}{5}
\setcounter{bookmark@seq@number}{7}
\setcounter{lecture}{0}
\setcounter{part}{0}
\setcounter{section}{7}
\setcounter{subsection}{0}
\setcounter{subsubsection}{0}
\setcounter{subsectionslide}{37}
\setcounter{framenumber}{37}
\setcounter{figure}{0}
\setcounter{table}{0}
\setcounter{parentequation}{0}
\setcounter{theorem}{0}
\setcounter{FancyVerbLine}{2}
\setcounter{section@level}{0}
\setcounter{treelevel}{0}
}
