\relax 
\providecommand\hyper@newdestlabel[2]{}
\@writefile{toc}{\beamer@sectionintoc {6}{Models}{60}{0}{6}}
\@writefile{nav}{\headcommand {\sectionentry {6}{Models}{60}{Models}{0}}}
\@writefile{nav}{\headcommand {\beamer@sectionpages {51}{59}}}
\@writefile{nav}{\headcommand {\beamer@subsectionpages {51}{59}}}
\@writefile{nav}{\headcommand {\slideentry {6}{0}{22}{60/60}{}{0}}}
\@writefile{nav}{\headcommand {\beamer@framepages {60}{60}}}
\@writefile{nav}{\headcommand {\slideentry {6}{0}{23}{61/61}{}{0}}}
\@writefile{nav}{\headcommand {\beamer@framepages {61}{61}}}
\@writefile{nav}{\headcommand {\slideentry {6}{0}{24}{62/62}{}{0}}}
\@writefile{nav}{\headcommand {\beamer@framepages {62}{62}}}
\@writefile{nav}{\headcommand {\slideentry {6}{0}{25}{63/64}{}{0}}}
\@writefile{nav}{\headcommand {\beamer@framepages {63}{64}}}
\@writefile{nav}{\headcommand {\slideentry {6}{0}{26}{65/65}{}{0}}}
\@writefile{nav}{\headcommand {\beamer@framepages {65}{65}}}
\@writefile{nav}{\headcommand {\slideentry {6}{0}{27}{66/67}{}{0}}}
\@writefile{nav}{\headcommand {\beamer@framepages {66}{67}}}
\@writefile{nav}{\headcommand {\slideentry {6}{0}{28}{68/68}{}{0}}}
\@writefile{nav}{\headcommand {\beamer@framepages {68}{68}}}
\@writefile{nav}{\headcommand {\slideentry {6}{0}{29}{69/71}{}{0}}}
\@writefile{nav}{\headcommand {\beamer@framepages {69}{71}}}
\@writefile{nav}{\headcommand {\slideentry {6}{0}{30}{72/75}{}{0}}}
\@writefile{nav}{\headcommand {\beamer@framepages {72}{75}}}
\@writefile{nav}{\headcommand {\slideentry {6}{0}{31}{76/80}{}{0}}}
\@writefile{nav}{\headcommand {\beamer@framepages {76}{80}}}
\@setckpt{models}{
\setcounter{page}{81}
\setcounter{equation}{0}
\setcounter{enumi}{0}
\setcounter{enumii}{0}
\setcounter{enumiii}{0}
\setcounter{enumiv}{0}
\setcounter{footnote}{0}
\setcounter{mpfootnote}{0}
\setcounter{beamerpauses}{6}
\setcounter{bookmark@seq@number}{6}
\setcounter{lecture}{0}
\setcounter{part}{0}
\setcounter{section}{6}
\setcounter{subsection}{0}
\setcounter{subsubsection}{0}
\setcounter{subsectionslide}{31}
\setcounter{framenumber}{31}
\setcounter{figure}{0}
\setcounter{table}{0}
\setcounter{parentequation}{0}
\setcounter{theorem}{0}
\setcounter{FancyVerbLine}{5}
\setcounter{section@level}{0}
\setcounter{treelevel}{0}
}
