\relax 
\providecommand\hyper@newdestlabel[2]{}
\@writefile{toc}{\beamer@sectionintoc {13}{Nesting}{114}{1}{13}}
\@writefile{nav}{\headcommand {\sectionentry {13}{Nesting}{114}{Nesting}{1}}}
\@writefile{nav}{\headcommand {\beamer@sectionpages {109}{113}}}
\@writefile{nav}{\headcommand {\beamer@subsectionpages {109}{113}}}
\@writefile{nav}{\headcommand {\slideentry {13}{0}{50}{114/114}{}{1}}}
\@writefile{nav}{\headcommand {\beamer@framepages {114}{114}}}
\@writefile{nav}{\headcommand {\slideentry {13}{0}{51}{115/116}{}{1}}}
\@writefile{nav}{\headcommand {\beamer@framepages {115}{116}}}
\@writefile{nav}{\headcommand {\slideentry {13}{0}{52}{117/118}{}{1}}}
\@writefile{nav}{\headcommand {\beamer@framepages {117}{118}}}
\@writefile{nav}{\headcommand {\slideentry {13}{0}{53}{119/120}{}{1}}}
\@writefile{nav}{\headcommand {\beamer@framepages {119}{120}}}
\@setckpt{nesting}{
\setcounter{page}{121}
\setcounter{equation}{0}
\setcounter{enumi}{0}
\setcounter{enumii}{0}
\setcounter{enumiii}{0}
\setcounter{enumiv}{0}
\setcounter{footnote}{0}
\setcounter{mpfootnote}{0}
\setcounter{beamerpauses}{2}
\setcounter{bookmark@seq@number}{14}
\setcounter{lecture}{0}
\setcounter{part}{1}
\setcounter{section}{13}
\setcounter{subsection}{0}
\setcounter{subsubsection}{0}
\setcounter{subsectionslide}{53}
\setcounter{framenumber}{53}
\setcounter{figure}{0}
\setcounter{table}{0}
\setcounter{parentequation}{0}
\setcounter{theorem}{0}
\setcounter{FancyVerbLine}{2}
\setcounter{section@level}{0}
\setcounter{treelevel}{0}
\setcounter{framenumbervorappendix}{39}
}
