# Fdb version 3
["latex"] 1362738840 "pagination.tex" "pagination.dvi" "pagination" 1362738841
  "/usr/share/texmf/web2c/texmf.cnf" 1342591516 29610 220a4f4cc0d915bf8fcbcb553dcee1ae ""
  "/var/lib/texmf/web2c/pdftex/latex.fmt" 1358172971 6913431 b251c6d439fb1c3eaf20301ed7593d81 ""
  "pagination.aux" 1362738780 1284 7421017e1dff239145f44939f31fad8b ""
  "pagination.tex" 1362738222 389 99f348faa19a4f6b1b1ba8d232bff12e ""
  (generated)
  "pagination.log"
  "pagination.dvi"
