\relax 
\providecommand\hyper@newdestlabel[2]{}
\@writefile{toc}{\beamer@sectionintoc {9}{Pagination Class}{95}{1}{9}}
\@writefile{nav}{\headcommand {\sectionentry {9}{Pagination Class}{95}{Pagination Class}{1}}}
\@writefile{nav}{\headcommand {\beamer@sectionpages {95}{94}}}
\@writefile{nav}{\headcommand {\beamer@subsectionpages {95}{94}}}
\@writefile{nav}{\headcommand {\slideentry {9}{0}{40}{95/95}{}{1}}}
\@writefile{nav}{\headcommand {\beamer@framepages {95}{95}}}
\@writefile{nav}{\headcommand {\slideentry {9}{0}{41}{96/98}{}{1}}}
\@writefile{nav}{\headcommand {\beamer@framepages {96}{98}}}
\@setckpt{pagination}{
\setcounter{page}{99}
\setcounter{equation}{0}
\setcounter{enumi}{0}
\setcounter{enumii}{0}
\setcounter{enumiii}{0}
\setcounter{enumiv}{0}
\setcounter{footnote}{0}
\setcounter{mpfootnote}{0}
\setcounter{beamerpauses}{4}
\setcounter{bookmark@seq@number}{10}
\setcounter{lecture}{0}
\setcounter{part}{1}
\setcounter{section}{9}
\setcounter{subsection}{0}
\setcounter{subsubsection}{0}
\setcounter{subsectionslide}{41}
\setcounter{framenumber}{41}
\setcounter{figure}{0}
\setcounter{table}{0}
\setcounter{parentequation}{0}
\setcounter{theorem}{0}
\setcounter{FancyVerbLine}{6}
\setcounter{section@level}{0}
\setcounter{treelevel}{0}
\setcounter{framenumbervorappendix}{39}
}
