\relax 
\providecommand\hyper@newdestlabel[2]{}
\@writefile{toc}{\beamer@sectionintoc {3}{Routering}{26}{0}{3}}
\@writefile{nav}{\headcommand {\sectionentry {3}{Routering}{26}{Routering}{0}}}
\@writefile{nav}{\headcommand {\beamer@sectionpages {12}{25}}}
\@writefile{nav}{\headcommand {\beamer@subsectionpages {12}{25}}}
\@writefile{nav}{\headcommand {\slideentry {3}{0}{8}{26/26}{}{0}}}
\@writefile{nav}{\headcommand {\beamer@framepages {26}{26}}}
\@writefile{nav}{\headcommand {\slideentry {3}{0}{9}{27/30}{}{0}}}
\@writefile{nav}{\headcommand {\beamer@framepages {27}{30}}}
\@writefile{nav}{\headcommand {\slideentry {3}{0}{10}{31/36}{}{0}}}
\@writefile{nav}{\headcommand {\beamer@framepages {31}{36}}}
\@writefile{nav}{\headcommand {\slideentry {3}{0}{11}{37/40}{}{0}}}
\@writefile{nav}{\headcommand {\beamer@framepages {37}{40}}}
\@setckpt{routing}{
\setcounter{page}{41}
\setcounter{equation}{0}
\setcounter{enumi}{0}
\setcounter{enumii}{0}
\setcounter{enumiii}{0}
\setcounter{enumiv}{0}
\setcounter{footnote}{0}
\setcounter{mpfootnote}{0}
\setcounter{beamerpauses}{4}
\setcounter{bookmark@seq@number}{3}
\setcounter{lecture}{0}
\setcounter{part}{0}
\setcounter{section}{3}
\setcounter{subsection}{0}
\setcounter{subsubsection}{0}
\setcounter{subsectionslide}{11}
\setcounter{framenumber}{11}
\setcounter{figure}{0}
\setcounter{table}{0}
\setcounter{parentequation}{0}
\setcounter{theorem}{0}
\setcounter{FancyVerbLine}{3}
\setcounter{section@level}{0}
\setcounter{treelevel}{0}
}
