\relax 
\providecommand\hyper@newdestlabel[2]{}
\@writefile{toc}{\beamer@sectionintoc {8}{Samenvatting}{93}{0}{8}}
\@writefile{nav}{\headcommand {\sectionentry {8}{Samenvatting}{93}{Samenvatting}{0}}}
\@writefile{nav}{\headcommand {\beamer@sectionpages {81}{92}}}
\@writefile{nav}{\headcommand {\beamer@subsectionpages {81}{92}}}
\@writefile{nav}{\headcommand {\slideentry {8}{0}{38}{93/93}{}{0}}}
\@writefile{nav}{\headcommand {\beamer@framepages {93}{93}}}
\@writefile{nav}{\headcommand {\slideentry {8}{0}{39}{94/94}{}{0}}}
\@writefile{nav}{\headcommand {\beamer@framepages {94}{94}}}
\@setckpt{summary}{
\setcounter{page}{95}
\setcounter{equation}{0}
\setcounter{enumi}{0}
\setcounter{enumii}{0}
\setcounter{enumiii}{0}
\setcounter{enumiv}{0}
\setcounter{footnote}{0}
\setcounter{mpfootnote}{0}
\setcounter{beamerpauses}{1}
\setcounter{bookmark@seq@number}{8}
\setcounter{lecture}{0}
\setcounter{part}{0}
\setcounter{section}{8}
\setcounter{subsection}{0}
\setcounter{subsubsection}{0}
\setcounter{subsectionslide}{39}
\setcounter{framenumber}{39}
\setcounter{figure}{0}
\setcounter{table}{0}
\setcounter{parentequation}{0}
\setcounter{theorem}{0}
\setcounter{FancyVerbLine}{2}
\setcounter{section@level}{0}
\setcounter{treelevel}{0}
}
