# Fdb version 3
["latex"] 1362738854 "summary.tex" "summary.dvi" "summary" 1362738855
  "/usr/share/texmf/web2c/texmf.cnf" 1342591516 29610 220a4f4cc0d915bf8fcbcb553dcee1ae ""
  "/var/lib/texmf/web2c/pdftex/latex.fmt" 1358172971 6913431 b251c6d439fb1c3eaf20301ed7593d81 ""
  "summary.aux" 1362738779 1094 6c47643d1fa0dcba9113ad51cde5a6ee ""
  "summary.tex" 1362738222 563 8c116e42b6ccbec5a16f93ce890abf4b ""
  (generated)
  "summary.dvi"
  "summary.log"
