\relax 
\providecommand\hyper@newdestlabel[2]{}
\@writefile{toc}{\beamer@sectionintoc {5}{Views}{51}{0}{5}}
\@writefile{nav}{\headcommand {\sectionentry {5}{Views}{51}{Views}{0}}}
\@writefile{nav}{\headcommand {\beamer@sectionpages {41}{50}}}
\@writefile{nav}{\headcommand {\beamer@subsectionpages {41}{50}}}
\@writefile{nav}{\headcommand {\slideentry {5}{0}{16}{51/51}{}{0}}}
\@writefile{nav}{\headcommand {\beamer@framepages {51}{51}}}
\@writefile{nav}{\headcommand {\slideentry {5}{0}{17}{52/52}{}{0}}}
\@writefile{nav}{\headcommand {\beamer@framepages {52}{52}}}
\@writefile{nav}{\headcommand {\slideentry {5}{0}{18}{53/54}{}{0}}}
\@writefile{nav}{\headcommand {\beamer@framepages {53}{54}}}
\@writefile{nav}{\headcommand {\slideentry {5}{0}{19}{55/55}{}{0}}}
\@writefile{nav}{\headcommand {\beamer@framepages {55}{55}}}
\@writefile{nav}{\headcommand {\slideentry {5}{0}{20}{56/56}{}{0}}}
\@writefile{nav}{\headcommand {\beamer@framepages {56}{56}}}
\@writefile{nav}{\headcommand {\slideentry {5}{0}{21}{57/59}{}{0}}}
\@writefile{nav}{\headcommand {\beamer@framepages {57}{59}}}
\@setckpt{views}{
\setcounter{page}{60}
\setcounter{equation}{0}
\setcounter{enumi}{0}
\setcounter{enumii}{0}
\setcounter{enumiii}{0}
\setcounter{enumiv}{0}
\setcounter{footnote}{0}
\setcounter{mpfootnote}{0}
\setcounter{beamerpauses}{3}
\setcounter{bookmark@seq@number}{5}
\setcounter{lecture}{0}
\setcounter{part}{0}
\setcounter{section}{5}
\setcounter{subsection}{0}
\setcounter{subsubsection}{0}
\setcounter{subsectionslide}{21}
\setcounter{framenumber}{21}
\setcounter{figure}{0}
\setcounter{table}{0}
\setcounter{parentequation}{0}
\setcounter{theorem}{0}
\setcounter{FancyVerbLine}{2}
\setcounter{section@level}{0}
\setcounter{treelevel}{0}
}
